{
  "project_info": {
    "project_number": "963779289392",
    "project_id": "fir-taller-69e20",
    "storage_bucket": "fir-taller-69e20.appspot.com"
  },
  "client": [
    {
      "client_info": {
        "mobilesdk_app_id": "1:963779289392:android:1ebac1d8dbdbfef7c968f5",
        "android_client_info": {
          "package_name": "com.example.firebaseapplication"
        }
      },
      "oauth_client": [
        {
          "client_id": "963779289392-cs9l3jjjbig09f3fujnp6269lsq0aaj9.apps.googleusercontent.com",
          "client_type": 3
        }
      ],
      "api_key": [
        {
          "current_key": "AIzaSyCxWg2bk23UOdeQDvBnI8vTVcG0QKrG4SI"
        }
      ],
      "services": {
        "appinvite_service": {
          "other_platform_oauth_client": [
            {
              "client_id": "963779289392-cs9l3jjjbig09f3fujnp6269lsq0aaj9.apps.googleusercontent.com",
              "client_type": 3
            }
          ]
        }
      }
    }
  ],
  "configuration_version": "1"
}